…
    ## # A tibble: 1 x 8
    ##   title   artist         `overall peak` `weeks on chart` `chart date` chart_date
    ##   <chr>   <chr>                   <dbl>            <dbl>        <dbl> <date>    
    ## 1 Blue F… WOODY HERMAN …              5                3     19410419 1941-04-19
    ## # … with 2 more variables: leave_chart <dbl>, y <date>

``` r
Nick_birthday <- ymd("19960715")

billboard_songs %>%
  mutate(chart_date = ymd(`chart date`))%>%
  filter(year(chart_date) == 2012)
```

    ## # A tibble: 375 x 6
    ##    title    artist       `overall peak` `weeks on chart` `chart date` chart_date
    ##    <chr>    <chr>                 <dbl>            <dbl>        <dbl> <date>    
    ##  1 Stupid … CASSADEE PO…             40                1     20121229 2012-12-29
    ##  2 Let It … TERRY McDER…             70                1     20121229 2012-12-29
    ##  3 Dance F… BEYONCE                  78               15     20121229 2012-12-29
    ##  4 My Life  50 CENT fea…             27                3     20121229 2012-12-29
    ##  5 Finally… ENRIQUE IGL…             24               14     20121229 2012-12-29
    ##  6 Everybo… NEON TREES                6               39     20121222 2012-12-22
    ##  7 Good Ti… OWL CITY & …              8               24     20121222 2012-12-22
    ##  8 Pop That FRENCH MONT…             36               22     20121222 2012-12-22
    ##  9 I Want … TERRY McDER…             84                1     20121222 2012-12-22
    ## 10 Let It … WIZ KHALIFA…             87                1     20121222 2012-12-22
    ## # … with 365 more rows
…
